References,Manufacturer Part Number,Quantity Per PCB,Digi-Key Link
C3 C4 C10 C11 C12 C14 C19 C20 C24,GRM1857U1A103JA44D,9,https://www.digikey.com/products/en?keywords=490-8269-1-ND
C1 C2 C5 C6 C7 C8 C9 C13 C15 C16 C21 C22,GRM188R61A106KE69D,12,https://www.digikey.com/products/en?keywords=490-10474-1-ND
C17 C18 C23,GRM188R71A225KE15D,3,https://www.digikey.com/products/en?keywords=490-4520-1-ND
J1 J2 J4,TSW-102-14-G-S,3,https://www.digikey.com/products/en?keywords=SAM1053-02-ND
J3,TSW-108-14-G-S,1,https://www.digikey.com/products/en?keywords=SAM1053-08-ND
JP1 JP2 JP3 JP4,TSW-102-14-G-S,4,https://www.digikey.com/products/en?keywords=SAM1053-02-ND
R1 R5,RC0603FR-071KL,2,https://www.digikey.com/products/en?keywords=311-1.00KHRCT-ND
R3,RC0603FR-07200RL,1,https://www.digikey.com/products/en?keywords=311-200HRCT-ND
R4 R6,RC0603FR-07249RL,2,https://www.digikey.com/products/en?keywords=311-249HRCT-ND
R2,RC0603FR-072KL,1,https://www.digikey.com/products/en?keywords=311-2.00KHRCT-ND
RV1 RV2 RV3,3269W-1-103GLF,3,https://www.digikey.com/products/en?keywords=3269W-1-103GLFCT-ND
U1 U2 U4,LT3022IMSE#PBF,3,https://www.digikey.com/products/en?keywords=LT3022IMSE%23PBF-ND
U3,248-5205-00,1,https://www.digikey.com/products/en?keywords=3M10828-ND
